{
    "example": {
        "awscloudformation": {
            "AuthRoleName": "amplify-awsamplifyexamplepro-example-82627-authRole",
            "UnauthRoleArn": "arn:aws:iam::512271740583:role/amplify-awsamplifyexamplepro-example-82627-unauthRole",
            "AuthRoleArn": "arn:aws:iam::512271740583:role/amplify-awsamplifyexamplepro-example-82627-authRole",
            "Region": "eu-central-1",
            "DeploymentBucketName": "amplify-awsamplifyexamplepro-example-82627-deployment",
            "UnauthRoleName": "amplify-awsamplifyexamplepro-example-82627-unauthRole",
            "StackName": "amplify-awsamplifyexamplepro-example-82627",
            "StackId": "arn:aws:cloudformation:eu-central-1:512271740583:stack/amplify-awsamplifyexamplepro-example-82627/3d389860-8c46-11ea-92ef-0a3ffba78ed8",
            "AmplifyAppId": "d1tapbl13if6j1"
        }
    }
}